NewApproach
…
TESTS TO FIGURE OUT WHATS GOING ON

gutenberg_filtered %>% filter(gutenberg_bookshelf == "Horror")

## # A tibble: 24 x 8
##    gutenberg_id title author gutenberg_autho language gutenberg_books
##           <int> <chr> <chr>             <int> <chr>    <chr>           
##  1          389 The  Mache              214 en       Horror          
##  2         2520 The  Stoke              190 en       Horror          
##  3         3095 The  Stoke              190 en       Horror          
##  4         3781 The  Stoke              190 en       Horror          
##  5         8486 Ghos James             2768 en       Horror          
##  6         8492 The  Chamb            38191 en       Horror          
##  7         9629 Ghos James             2768 en       Horror          
##  8        10150 Drac Stoke              190 en       Horror          
##  9        10542 "The Hodgs             3260 en       Horror          
## 10        10897 The  Black             1370 en       Horror          
## #  with 14 more rows, and 2 more variables: rights <chr>, has_text <lgl>
…
